…
``` r
dat.ass %>% 
  # specify which number of assessment you want to have
  om_filter_data(n_assessments = 1:3,
             # assessment version?
             version = 4,
             # select Accesscode(s) to produce report for
             accesscode = "Wilkes"
             # "Wilkes" #try this out :)
  )
```

    ## # A tibble: 653 x 78
    ##    id    OMID  AccessCode AssessmentVersi~ AssessmentsDone Q1Pre Q2Pre
    ##    <chr> <chr> <chr>      <chr>                      <dbl> <chr> <chr>
    ##  1 rec0~ 5717~ TalpashWi~ 4                              3 56    54   
    ##  2 rec0~ 1101~ ThomasWil~ 4                              2 70    40   
    ##  3 rec0~ 1430~ MaykWilke~ 4                              2 50    50   
    ##  4 rec0~ 1144~ SuszkoWil~ 4                              2 31    65   
    ##  5 rec0~ 4351~ WilliamsW~ 4                              3 77    25   
    ##  6 rec0~ 2247~ PradoWilk~ 4                              2 19    100  
    ##  7 rec0~ 3909~ VosikPeka~ 4                              2 50    58   
    ##  8 rec0~ 3873~ BalesterW~ 4                              2 63    85   
    ##  9 rec1~ 7625~ BalesterW~ 4                              2 73    30   
    ## 10 rec1~ 6771~ KarimiWil~ 4                              3 90    20   
    ## # ... with 643 more rows, and 71 more variables: Q3Pre <chr>, Q4Pre <chr>,
    ## #   Q5Pre <chr>, Q6Pre <chr>, Q7Pre <chr>, Q8Pre <chr>, Q9Pre <chr>,
    ## #   Q10Pre <chr>, Q11Pre <chr>, Q12Pre <chr>, C1Pre <chr>, C2Pre <chr>,
    ## #   C3Pre <chr>, D1 <chr>, D2 <chr>, D3 <chr>, D4 <chr>, D5 <chr>,
    ## #   DatePre <chr>, Q1Post <chr>, Q2Post <chr>, Q3Post <chr>, Q4Post <chr>,
    ## #   Q5Post <chr>, Q6Post <chr>, Q7Post <chr>, Q8Post <chr>, Q9Post <chr>,
    ## #   Q10Post <chr>, Q11Post <chr>, Q12Post <chr>, DatePost <chr>,
    ## #   B1Pre <chr>, B1Post <chr>, Q1FollowUp <chr>, Q2FollowUp <chr>,
    ## #   Q3FollowUp <chr>, Q4FollowUp <chr>, Q5FollowUp <chr>,
…
``` r
dat.ass %>% 
  # specify which number of assessment you want to have
  om_filter_data(n_assessments = 1:3,
             # assessment version?
             version = 4,
             # select Accesscode(s) to produce report for
             accesscode = c("SuszkoWilkesUF18", "KarimiWilkesUF18")
  )
```

    ## # A tibble: 31 x 78
    ##    id    OMID  AccessCode AssessmentVersi~ AssessmentsDone Q1Pre Q2Pre
    ##    <chr> <chr> <chr>      <chr>                      <dbl> <chr> <chr>
    ##  1 rec0~ 1144~ SuszkoWil~ 4                              2 31    65   
    ##  2 rec1~ 6771~ KarimiWil~ 4                              3 90    20   
    ##  3 rec5~ 5923~ SuszkoWil~ 4                              2 50    50   
    ##  4 rec5~ 1915~ KarimiWil~ 4                              2 35    5    
    ##  5 rec7~ 1018~ SuszkoWil~ 4                              2 30    85   
    ##  6 recA~ 1326~ KarimiWil~ 4                              2 70    45   
    ##  7 recE~ 3793~ KarimiWil~ 4                              2 100   30   
    ##  8 recH~ 2939~ SuszkoWil~ 4                              2 <NA>  <NA> 
    ##  9 recL~ 7456~ SuszkoWil~ 4                              2 25    75   
    ## 10 recT~ 3521~ KarimiWil~ 4                              2 25    67   
    ## # ... with 21 more rows, and 71 more variables: Q3Pre <chr>, Q4Pre <chr>,
    ## #   Q5Pre <chr>, Q6Pre <chr>, Q7Pre <chr>, Q8Pre <chr>, Q9Pre <chr>,
    ## #   Q10Pre <chr>, Q11Pre <chr>, Q12Pre <chr>, C1Pre <chr>, C2Pre <chr>,
    ## #   C3Pre <chr>, D1 <chr>, D2 <chr>, D3 <chr>, D4 <chr>, D5 <chr>,
    ## #   DatePre <chr>, Q1Post <chr>, Q2Post <chr>, Q3Post <chr>, Q4Post <chr>,
    ## #   Q5Post <chr>, Q6Post <chr>, Q7Post <chr>, Q8Post <chr>, Q9Post <chr>,
    ## #   Q10Post <chr>, Q11Post <chr>, Q12Post <chr>, DatePost <chr>,
    ## #   B1Pre <chr>, B1Post <chr>, Q1FollowUp <chr>, Q2FollowUp <chr>,
    ## #   Q3FollowUp <chr>, Q4FollowUp <chr>, Q5FollowUp <chr>,
…
And individual strings:

``` r
dat.ass %>% 
  # specify which number of assessment you want to have
  om_filter_data(n_assessments = 1:3,
             # assessment version?
             version = 4,
             # select Accesscode(s) to produce report for
             accesscode = c("suszko|karimi")
  )
```

    ## # A tibble: 31 x 78
    ##    id    OMID  AccessCode AssessmentVersi~ AssessmentsDone Q1Pre Q2Pre
    ##    <chr> <chr> <chr>      <chr>                      <dbl> <chr> <chr>
    ##  1 rec0~ 1144~ SuszkoWil~ 4                              2 31    65   
    ##  2 rec1~ 6771~ KarimiWil~ 4                              3 90    20   
    ##  3 rec5~ 5923~ SuszkoWil~ 4                              2 50    50   
    ##  4 rec5~ 1915~ KarimiWil~ 4                              2 35    5    
    ##  5 rec7~ 1018~ SuszkoWil~ 4                              2 30    85   
    ##  6 recA~ 1326~ KarimiWil~ 4                              2 70    45   
    ##  7 recE~ 3793~ KarimiWil~ 4                              2 100   30   
    ##  8 recH~ 2939~ SuszkoWil~ 4                              2 <NA>  <NA> 
    ##  9 recL~ 7456~ SuszkoWil~ 4                              2 25    75   
    ## 10 recT~ 3521~ KarimiWil~ 4                              2 25    67   
    ## # ... with 21 more rows, and 71 more variables: Q3Pre <chr>, Q4Pre <chr>,
    ## #   Q5Pre <chr>, Q6Pre <chr>, Q7Pre <chr>, Q8Pre <chr>, Q9Pre <chr>,
    ## #   Q10Pre <chr>, Q11Pre <chr>, Q12Pre <chr>, C1Pre <chr>, C2Pre <chr>,
    ## #   C3Pre <chr>, D1 <chr>, D2 <chr>, D3 <chr>, D4 <chr>, D5 <chr>,
    ## #   DatePre <chr>, Q1Post <chr>, Q2Post <chr>, Q3Post <chr>, Q4Post <chr>,
    ## #   Q5Post <chr>, Q6Post <chr>, Q7Post <chr>, Q8Post <chr>, Q9Post <chr>,
    ## #   Q10Post <chr>, Q11Post <chr>, Q12Post <chr>, DatePost <chr>,
    ## #   B1Pre <chr>, B1Post <chr>, Q1FollowUp <chr>, Q2FollowUp <chr>,
    ## #   Q3FollowUp <chr>, Q4FollowUp <chr>, Q5FollowUp <chr>,
…
  - **StepTimes1 to StepTimes5:** Duration in minutes to complete a step

  - **StepCorrect1 to StepCorrect5:** Percentage of correct answers for
    each step

  - **FeedbackAnswers:** Q1 to Q5 for each individual step

<!-- end list -->

``` r
dat.par %>% 
  om_clean_par()
```

    ## # A tibble: 16,896 x 36
    ##    OMID  StepTimes StepsComplete StepCorrect1 StepCorrect2 StepCorrect3
    ##    <chr> <chr>     <chr>                <dbl>        <dbl>        <dbl>
    ##  1 7806~ <NA>      1, 1, 1, 1, 1        0.667        0.625        0.667
    ##  2 1000~ <NA>      1, 1, 1, 1, 1        0.75         1            0.833
    ##  3 1945~ <NA>      1, 1, 1, 1, 1        0.667        1            0.667
    ##  4 7858~ <NA>      1, 0, 0, 0, 0        0.833       NA           NA    
    ##  5 9277~ <NA>      1, 1, 1, 1, 1        1            1            1    
    ##  6 6750~ <NA>      1, 1, 1, 1, 1        1            1            1    
    ##  7 4023~ <NA>      1, 1, 1, 1, 1        0.833        1            0.667
    ##  8 1000~ <NA>      1, 1, 1, 1, 1        0.625        1            0.667
    ##  9 2458~ <NA>      1, 1, 1, 1, 0        1            1            1    
    ## 10 9406~ <NA>      1, 1, 0, 0, 0        1            1           NA    
    ## # ... with 16,886 more rows, and 30 more variables: StepCorrect4 <dbl>,
    ## #   StepCorrect5 <dbl>, StepTimes1 <dbl>, StepTimes2 <dbl>,
    ## #   StepTimes3 <dbl>, StepTimes4 <dbl>, StepTimes5 <dbl>, Step1 <chr>,
    ## #   Step1_Q1 <chr>, Step1_Q2 <chr>, Step1_Q3 <chr>, Step1_Q4 <chr>,
    ## #   Step1_Q5 <chr>, Step2 <chr>, Step2_Q1 <chr>, Step2_Q2 <chr>,
    ## #   Step2_Q3 <chr>, Step2_Q4 <chr>, Step2_Q5 <chr>, Step5 <chr>,
    ## #   Step5_Q1 <chr>, Step5_Q2 <chr>, Step5_Q3 <chr>, Step5_Q4 <chr>,
    ## #   Step5_Q5 <chr>, FeedbackAnswers <chr>,
    ## #   FeedbackAnswersVariableNames <chr>, AppRating <chr>,
…
